^E:\GOOGLE_DRIVE\PROJECTS\HOTEL\VERSION 2.0\SOFTWARE\TN_WINAPP\FRMCATEGORY_EDIT.RESX|E:\GOOGLE_DRIVE\PROJECTS\HOTEL\VERSION 2.0\SOFTWARE\TN_WINAPP\FRMCHECKIN.RESX|E:\GOOGLE_DRIVE\PROJECTS\HOTEL\VERSION 2.0\SOFTWARE\TN_WINAPP\FRMCHECKOUT.RESX|E:\GOOGLE_DRIVE\PROJECTS\HOTEL\VERSION 2.0\SOFTWARE\TN_WINAPP\FRMCHECK_OUT.RESX|E:\GOOGLE_DRIVE\PROJECTS\HOTEL\VERSION 2.0\SOFTWARE\TN_WINAPP\FRMEMPLOYEES.RESX|E:\GOOGLE_DRIVE\PROJECTS\HOTEL\VERSION 2.0\SOFTWARE\TN_WINAPP\FRMFOODQUICK.RESX|E:\GOOGLE_DRIVE\PROJECTS\HOTEL\VERSION 2.0\SOFTWARE\TN_WINAPP\FRMINVOICE.RESX|E:\GOOGLE_DRIVE\PROJECTS\HOTEL\VERSION 2.0\SOFTWARE\TN_WINAPP\FRMLOGIN.RESX|E:\GOOGLE_DRIVE\PROJECTS\HOTEL\VERSION 2.0\SOFTWARE\TN_WINAPP\FRMMAIN.RESX|E:\GOOGLE_DRIVE\PROJECTS\HOTEL\VERSION 2.0\SOFTWARE\TN_WINAPP\FRMPRODUCTS.RESX|E:\GOOGLE_DRIVE\PROJECTS\HOTEL\VERSION 2.0\SOFTWARE\TN_WINAPP\FRMREPORT.RESX|E:\GOOGLE_DRIVE\PROJECTS\HOTEL\VERSION 2.0\SOFTWARE\TN_WINAPP\FRMROOMS.RESX|E:\GOOGLE_DRIVE\PROJECTS\HOTEL\VERSION 2.0\SOFTWARE\TN_WINAPP\FRM_FRONT_DESK.RESX|E:\GOOGLE_DRIVE\PROJECTS\HOTEL\VERSION 2.0\SOFTWARE\TN_WINAPP\PROPERTIES\RESOURCES.RESX
E:\GOOGLE_DRIVE\PROJECTS\HOTEL\VERSION 2.0\SOFTWARE\TN_WINAPP\OBJ\X86\DEBUG\TN_WINAPP.FRMCHECKOUT.RESOURCES
E:\GOOGLE_DRIVE\PROJECTS\HOTEL\VERSION 2.0\SOFTWARE\TN_WINAPP\OBJ\X86\DEBUG\TN_WINAPP.FRMEMPLOYEES.RESOURCES
E:\GOOGLE_DRIVE\PROJECTS\HOTEL\VERSION 2.0\SOFTWARE\TN_WINAPP\OBJ\X86\DEBUG\TN_WINAPP.FRMLOGIN.RESOURCES
E:\GOOGLE_DRIVE\PROJECTS\HOTEL\VERSION 2.0\SOFTWARE\TN_WINAPP\OBJ\X86\DEBUG\TN_WINAPP.FRMPRODUCTS.RESOURCES
E:\GOOGLE_DRIVE\PROJECTS\HOTEL\VERSION 2.0\SOFTWARE\TN_WINAPP\OBJ\X86\DEBUG\TN_WINAPP.FRMCATEGORY_EDIT.RESOURCES
E:\GOOGLE_DRIVE\PROJECTS\HOTEL\VERSION 2.0\SOFTWARE\TN_WINAPP\OBJ\X86\DEBUG\TN_WINAPP.FRMCHECK_OUT.RESOURCES
E:\GOOGLE_DRIVE\PROJECTS\HOTEL\VERSION 2.0\SOFTWARE\TN_WINAPP\OBJ\X86\DEBUG\TN_WINAPP.FRMINVOICE.RESOURCES
E:\GOOGLE_DRIVE\PROJECTS\HOTEL\VERSION 2.0\SOFTWARE\TN_WINAPP\OBJ\X86\DEBUG\TN_WINAPP.FRMCHECKIN.RESOURCES
E:\GOOGLE_DRIVE\PROJECTS\HOTEL\VERSION 2.0\SOFTWARE\TN_WINAPP\OBJ\X86\DEBUG\TN_WINAPP.FRMFOODQUICK.RESOURCES
E:\GOOGLE_DRIVE\PROJECTS\HOTEL\VERSION 2.0\SOFTWARE\TN_WINAPP\OBJ\X86\DEBUG\TN_WINAPP.FRMMAIN.RESOURCES
E:\GOOGLE_DRIVE\PROJECTS\HOTEL\VERSION 2.0\SOFTWARE\TN_WINAPP\OBJ\X86\DEBUG\TN_WINAPP.FRMREPORT.RESOURCES
E:\GOOGLE_DRIVE\PROJECTS\HOTEL\VERSION 2.0\SOFTWARE\TN_WINAPP\OBJ\X86\DEBUG\TN_WINAPP.FRMROOMS.RESOURCES
E:\GOOGLE_DRIVE\PROJECTS\HOTEL\VERSION 2.0\SOFTWARE\TN_WINAPP\OBJ\X86\DEBUG\TN_WINAPP.FRM_FRONT_DESK.RESOURCES
E:\GOOGLE_DRIVE\PROJECTS\HOTEL\VERSION 2.0\SOFTWARE\TN_WINAPP\OBJ\X86\DEBUG\TN_WINAPP.PROPERTIES.RESOURCES.RESOURCES
^E:\GOOGLE_DRIVE\PROJECTS\HOTEL\VERSION 2.0\SOFTWARE\TN_WINAPP\FRMCATEGORY_EDIT.RESX|E:\GOOGLE_DRIVE\PROJECTS\HOTEL\VERSION 2.0\SOFTWARE\TN_WINAPP\FRMCHECKIN.RESX|E:\GOOGLE_DRIVE\PROJECTS\HOTEL\VERSION 2.0\SOFTWARE\TN_WINAPP\FRMCHECKOUT.RESX|E:\GOOGLE_DRIVE\PROJECTS\HOTEL\VERSION 2.0\SOFTWARE\TN_WINAPP\FRMCHECK_OUT.RESX|E:\GOOGLE_DRIVE\PROJECTS\HOTEL\VERSION 2.0\SOFTWARE\TN_WINAPP\FRMEMPLOYEES.RESX|E:\GOOGLE_DRIVE\PROJECTS\HOTEL\VERSION 2.0\SOFTWARE\TN_WINAPP\FRMFOODQUICK.RESX|E:\GOOGLE_DRIVE\PROJECTS\HOTEL\VERSION 2.0\SOFTWARE\TN_WINAPP\FRMHOME.RESX|E:\GOOGLE_DRIVE\PROJECTS\HOTEL\VERSION 2.0\SOFTWARE\TN_WINAPP\FRMINVOICE.RESX|E:\GOOGLE_DRIVE\PROJECTS\HOTEL\VERSION 2.0\SOFTWARE\TN_WINAPP\FRMLOGIN.RESX|E:\GOOGLE_DRIVE\PROJECTS\HOTEL\VERSION 2.0\SOFTWARE\TN_WINAPP\FRMMAIN.RESX|E:\GOOGLE_DRIVE\PROJECTS\HOTEL\VERSION 2.0\SOFTWARE\TN_WINAPP\FRMPRODUCTS.RESX|E:\GOOGLE_DRIVE\PROJECTS\HOTEL\VERSION 2.0\SOFTWARE\TN_WINAPP\FRMREPORT.RESX|E:\GOOGLE_DRIVE\PROJECTS\HOTEL\VERSION 2.0\SOFTWARE\TN_WINAPP\FRMROOMS.RESX|E:\GOOGLE_DRIVE\PROJECTS\HOTEL\VERSION 2.0\SOFTWARE\TN_WINAPP\FRM_FRONT_DESK.RESX|E:\GOOGLE_DRIVE\PROJECTS\HOTEL\VERSION 2.0\SOFTWARE\TN_WINAPP\PROPERTIES\RESOURCES.RESX
E:\GOOGLE_DRIVE\PROJECTS\HOTEL\VERSION 2.0\SOFTWARE\TN_WINAPP\OBJ\X86\DEBUG\TN_WINAPP.FRMCHECKOUT.RESOURCES
E:\GOOGLE_DRIVE\PROJECTS\HOTEL\VERSION 2.0\SOFTWARE\TN_WINAPP\OBJ\X86\DEBUG\TN_WINAPP.FRMEMPLOYEES.RESOURCES
E:\GOOGLE_DRIVE\PROJECTS\HOTEL\VERSION 2.0\SOFTWARE\TN_WINAPP\OBJ\X86\DEBUG\TN_WINAPP.FRMHOME.RESOURCES
E:\GOOGLE_DRIVE\PROJECTS\HOTEL\VERSION 2.0\SOFTWARE\TN_WINAPP\OBJ\X86\DEBUG\TN_WINAPP.FRMLOGIN.RESOURCES
E:\GOOGLE_DRIVE\PROJECTS\HOTEL\VERSION 2.0\SOFTWARE\TN_WINAPP\OBJ\X86\DEBUG\TN_WINAPP.FRMPRODUCTS.RESOURCES
E:\GOOGLE_DRIVE\PROJECTS\HOTEL\VERSION 2.0\SOFTWARE\TN_WINAPP\OBJ\X86\DEBUG\TN_WINAPP.FRMCATEGORY_EDIT.RESOURCES
E:\GOOGLE_DRIVE\PROJECTS\HOTEL\VERSION 2.0\SOFTWARE\TN_WINAPP\OBJ\X86\DEBUG\TN_WINAPP.FRMCHECK_OUT.RESOURCES
E:\GOOGLE_DRIVE\PROJECTS\HOTEL\VERSION 2.0\SOFTWARE\TN_WINAPP\OBJ\X86\DEBUG\TN_WINAPP.FRMINVOICE.RESOURCES
E:\GOOGLE_DRIVE\PROJECTS\HOTEL\VERSION 2.0\SOFTWARE\TN_WINAPP\OBJ\X86\DEBUG\TN_WINAPP.FRMCHECKIN.RESOURCES
E:\GOOGLE_DRIVE\PROJECTS\HOTEL\VERSION 2.0\SOFTWARE\TN_WINAPP\OBJ\X86\DEBUG\TN_WINAPP.FRMFOODQUICK.RESOURCES
E:\GOOGLE_DRIVE\PROJECTS\HOTEL\VERSION 2.0\SOFTWARE\TN_WINAPP\OBJ\X86\DEBUG\TN_WINAPP.FRMMAIN.RESOURCES
E:\GOOGLE_DRIVE\PROJECTS\HOTEL\VERSION 2.0\SOFTWARE\TN_WINAPP\OBJ\X86\DEBUG\TN_WINAPP.FRMREPORT.RESOURCES
E:\GOOGLE_DRIVE\PROJECTS\HOTEL\VERSION 2.0\SOFTWARE\TN_WINAPP\OBJ\X86\DEBUG\TN_WINAPP.FRMROOMS.RESOURCES
E:\GOOGLE_DRIVE\PROJECTS\HOTEL\VERSION 2.0\SOFTWARE\TN_WINAPP\OBJ\X86\DEBUG\TN_WINAPP.FRM_FRONT_DESK.RESOURCES
E:\GOOGLE_DRIVE\PROJECTS\HOTEL\VERSION 2.0\SOFTWARE\TN_WINAPP\OBJ\X86\DEBUG\TN_WINAPP.PROPERTIES.RESOURCES.RESOURCES
^E:\GOOGLE_DRIVE\PROJECTS\HOTEL\VERSION 2.0\SOFTWARE\TN_WINAPP\FRMCATEGORY_EDIT.RESX|E:\GOOGLE_DRIVE\PROJECTS\HOTEL\VERSION 2.0\SOFTWARE\TN_WINAPP\FRMCHECKIN.RESX|E:\GOOGLE_DRIVE\PROJECTS\HOTEL\VERSION 2.0\SOFTWARE\TN_WINAPP\FRMCHECKOUT.RESX|E:\GOOGLE_DRIVE\PROJECTS\HOTEL\VERSION 2.0\SOFTWARE\TN_WINAPP\FRMCHECK_OUT.RESX|E:\GOOGLE_DRIVE\PROJECTS\HOTEL\VERSION 2.0\SOFTWARE\TN_WINAPP\FRMCLEAN.RESX|E:\GOOGLE_DRIVE\PROJECTS\HOTEL\VERSION 2.0\SOFTWARE\TN_WINAPP\FRMEMPLOYEES.RESX|E:\GOOGLE_DRIVE\PROJECTS\HOTEL\VERSION 2.0\SOFTWARE\TN_WINAPP\FRMFOODQUICK.RESX|E:\GOOGLE_DRIVE\PROJECTS\HOTEL\VERSION 2.0\SOFTWARE\TN_WINAPP\FRMINVOICE.RESX|E:\GOOGLE_DRIVE\PROJECTS\HOTEL\VERSION 2.0\SOFTWARE\TN_WINAPP\FRMLOGIN.RESX|E:\GOOGLE_DRIVE\PROJECTS\HOTEL\VERSION 2.0\SOFTWARE\TN_WINAPP\FRMMAIN.RESX|E:\GOOGLE_DRIVE\PROJECTS\HOTEL\VERSION 2.0\SOFTWARE\TN_WINAPP\FRMPRODUCTS.RESX|E:\GOOGLE_DRIVE\PROJECTS\HOTEL\VERSION 2.0\SOFTWARE\TN_WINAPP\FRMREPORT.RESX|E:\GOOGLE_DRIVE\PROJECTS\HOTEL\VERSION 2.0\SOFTWARE\TN_WINAPP\FRMROOMS.RESX|E:\GOOGLE_DRIVE\PROJECTS\HOTEL\VERSION 2.0\SOFTWARE\TN_WINAPP\FRM_FRONT_DESK.RESX|E:\GOOGLE_DRIVE\PROJECTS\HOTEL\VERSION 2.0\SOFTWARE\TN_WINAPP\PROPERTIES\RESOURCES.RESX
E:\GOOGLE_DRIVE\PROJECTS\HOTEL\VERSION 2.0\SOFTWARE\TN_WINAPP\OBJ\X86\DEBUG\TN_WINAPP.FRMCHECKOUT.RESOURCES
E:\GOOGLE_DRIVE\PROJECTS\HOTEL\VERSION 2.0\SOFTWARE\TN_WINAPP\OBJ\X86\DEBUG\TN_WINAPP.FRMCLEAN.RESOURCES
E:\GOOGLE_DRIVE\PROJECTS\HOTEL\VERSION 2.0\SOFTWARE\TN_WINAPP\OBJ\X86\DEBUG\TN_WINAPP.FRMEMPLOYEES.RESOURCES
E:\GOOGLE_DRIVE\PROJECTS\HOTEL\VERSION 2.0\SOFTWARE\TN_WINAPP\OBJ\X86\DEBUG\TN_WINAPP.FRMLOGIN.RESOURCES
E:\GOOGLE_DRIVE\PROJECTS\HOTEL\VERSION 2.0\SOFTWARE\TN_WINAPP\OBJ\X86\DEBUG\TN_WINAPP.FRMPRODUCTS.RESOURCES
E:\GOOGLE_DRIVE\PROJECTS\HOTEL\VERSION 2.0\SOFTWARE\TN_WINAPP\OBJ\X86\DEBUG\TN_WINAPP.FRMCATEGORY_EDIT.RESOURCES
E:\GOOGLE_DRIVE\PROJECTS\HOTEL\VERSION 2.0\SOFTWARE\TN_WINAPP\OBJ\X86\DEBUG\TN_WINAPP.FRMCHECK_OUT.RESOURCES
E:\GOOGLE_DRIVE\PROJECTS\HOTEL\VERSION 2.0\SOFTWARE\TN_WINAPP\OBJ\X86\DEBUG\TN_WINAPP.FRMINVOICE.RESOURCES
E:\GOOGLE_DRIVE\PROJECTS\HOTEL\VERSION 2.0\SOFTWARE\TN_WINAPP\OBJ\X86\DEBUG\TN_WINAPP.FRMCHECKIN.RESOURCES
E:\GOOGLE_DRIVE\PROJECTS\HOTEL\VERSION 2.0\SOFTWARE\TN_WINAPP\OBJ\X86\DEBUG\TN_WINAPP.FRMFOODQUICK.RESOURCES
E:\GOOGLE_DRIVE\PROJECTS\HOTEL\VERSION 2.0\SOFTWARE\TN_WINAPP\OBJ\X86\DEBUG\TN_WINAPP.FRMMAIN.RESOURCES
E:\GOOGLE_DRIVE\PROJECTS\HOTEL\VERSION 2.0\SOFTWARE\TN_WINAPP\OBJ\X86\DEBUG\TN_WINAPP.FRMREPORT.RESOURCES
E:\GOOGLE_DRIVE\PROJECTS\HOTEL\VERSION 2.0\SOFTWARE\TN_WINAPP\OBJ\X86\DEBUG\TN_WINAPP.FRMROOMS.RESOURCES
E:\GOOGLE_DRIVE\PROJECTS\HOTEL\VERSION 2.0\SOFTWARE\TN_WINAPP\OBJ\X86\DEBUG\TN_WINAPP.FRM_FRONT_DESK.RESOURCES
E:\GOOGLE_DRIVE\PROJECTS\HOTEL\VERSION 2.0\SOFTWARE\TN_WINAPP\OBJ\X86\DEBUG\TN_WINAPP.PROPERTIES.RESOURCES.RESOURCES
^E:\GOOGLE_DRIVE\HHT\PROJECTS\HOTEL\VERSION 2.0\SOFTWARE\TN_WINAPP\FRMCATEGORY_EDIT.RESX|E:\GOOGLE_DRIVE\HHT\PROJECTS\HOTEL\VERSION 2.0\SOFTWARE\TN_WINAPP\FRMCHECKIN.RESX|E:\GOOGLE_DRIVE\HHT\PROJECTS\HOTEL\VERSION 2.0\SOFTWARE\TN_WINAPP\FRMCHECKOUT.RESX|E:\GOOGLE_DRIVE\HHT\PROJECTS\HOTEL\VERSION 2.0\SOFTWARE\TN_WINAPP\FRMCHECK_OUT.RESX|E:\GOOGLE_DRIVE\HHT\PROJECTS\HOTEL\VERSION 2.0\SOFTWARE\TN_WINAPP\FRMCLEAN.RESX|E:\GOOGLE_DRIVE\HHT\PROJECTS\HOTEL\VERSION 2.0\SOFTWARE\TN_WINAPP\FRMEMPLOYEES.RESX|E:\GOOGLE_DRIVE\HHT\PROJECTS\HOTEL\VERSION 2.0\SOFTWARE\TN_WINAPP\FRMFOODQUICK.RESX|E:\GOOGLE_DRIVE\HHT\PROJECTS\HOTEL\VERSION 2.0\SOFTWARE\TN_WINAPP\FRMINVOICE.RESX|E:\GOOGLE_DRIVE\HHT\PROJECTS\HOTEL\VERSION 2.0\SOFTWARE\TN_WINAPP\FRMLOGIN.RESX|E:\GOOGLE_DRIVE\HHT\PROJECTS\HOTEL\VERSION 2.0\SOFTWARE\TN_WINAPP\FRMMAIN.RESX|E:\GOOGLE_DRIVE\HHT\PROJECTS\HOTEL\VERSION 2.0\SOFTWARE\TN_WINAPP\FRMPRODUCTS.RESX|E:\GOOGLE_DRIVE\HHT\PROJECTS\HOTEL\VERSION 2.0\SOFTWARE\TN_WINAPP\FRMREPORT.RESX|E:\GOOGLE_DRIVE\HHT\PROJECTS\HOTEL\VERSION 2.0\SOFTWARE\TN_WINAPP\FRMROOMS.RESX|E:\GOOGLE_DRIVE\HHT\PROJECTS\HOTEL\VERSION 2.0\SOFTWARE\TN_WINAPP\FRM_FRONT_DESK.RESX|E:\GOOGLE_DRIVE\HHT\PROJECTS\HOTEL\VERSION 2.0\SOFTWARE\TN_WINAPP\PROPERTIES\RESOURCES.RESX
E:\GOOGLE_DRIVE\HHT\PROJECTS\HOTEL\VERSION 2.0\SOFTWARE\TN_WINAPP\OBJ\X86\DEBUG\TN_WINAPP.FRMCATEGORY_EDIT.RESOURCES
E:\GOOGLE_DRIVE\HHT\PROJECTS\HOTEL\VERSION 2.0\SOFTWARE\TN_WINAPP\OBJ\X86\DEBUG\TN_WINAPP.FRMCHECKIN.RESOURCES
E:\GOOGLE_DRIVE\HHT\PROJECTS\HOTEL\VERSION 2.0\SOFTWARE\TN_WINAPP\OBJ\X86\DEBUG\TN_WINAPP.FRMCHECKOUT.RESOURCES
E:\GOOGLE_DRIVE\HHT\PROJECTS\HOTEL\VERSION 2.0\SOFTWARE\TN_WINAPP\OBJ\X86\DEBUG\TN_WINAPP.FRMCHECK_OUT.RESOURCES
E:\GOOGLE_DRIVE\HHT\PROJECTS\HOTEL\VERSION 2.0\SOFTWARE\TN_WINAPP\OBJ\X86\DEBUG\TN_WINAPP.FRMCLEAN.RESOURCES
E:\GOOGLE_DRIVE\HHT\PROJECTS\HOTEL\VERSION 2.0\SOFTWARE\TN_WINAPP\OBJ\X86\DEBUG\TN_WINAPP.FRMEMPLOYEES.RESOURCES
E:\GOOGLE_DRIVE\HHT\PROJECTS\HOTEL\VERSION 2.0\SOFTWARE\TN_WINAPP\OBJ\X86\DEBUG\TN_WINAPP.FRMFOODQUICK.RESOURCES
E:\GOOGLE_DRIVE\HHT\PROJECTS\HOTEL\VERSION 2.0\SOFTWARE\TN_WINAPP\OBJ\X86\DEBUG\TN_WINAPP.FRMINVOICE.RESOURCES
E:\GOOGLE_DRIVE\HHT\PROJECTS\HOTEL\VERSION 2.0\SOFTWARE\TN_WINAPP\OBJ\X86\DEBUG\TN_WINAPP.FRMLOGIN.RESOURCES
E:\GOOGLE_DRIVE\HHT\PROJECTS\HOTEL\VERSION 2.0\SOFTWARE\TN_WINAPP\OBJ\X86\DEBUG\TN_WINAPP.FRMMAIN.RESOURCES
E:\GOOGLE_DRIVE\HHT\PROJECTS\HOTEL\VERSION 2.0\SOFTWARE\TN_WINAPP\OBJ\X86\DEBUG\TN_WINAPP.FRMPRODUCTS.RESOURCES
E:\GOOGLE_DRIVE\HHT\PROJECTS\HOTEL\VERSION 2.0\SOFTWARE\TN_WINAPP\OBJ\X86\DEBUG\TN_WINAPP.FRMREPORT.RESOURCES
E:\GOOGLE_DRIVE\HHT\PROJECTS\HOTEL\VERSION 2.0\SOFTWARE\TN_WINAPP\OBJ\X86\DEBUG\TN_WINAPP.FRMROOMS.RESOURCES
E:\GOOGLE_DRIVE\HHT\PROJECTS\HOTEL\VERSION 2.0\SOFTWARE\TN_WINAPP\OBJ\X86\DEBUG\TN_WINAPP.FRM_FRONT_DESK.RESOURCES
E:\GOOGLE_DRIVE\HHT\PROJECTS\HOTEL\VERSION 2.0\SOFTWARE\TN_WINAPP\OBJ\X86\DEBUG\TN_WINAPP.PROPERTIES.RESOURCES.RESOURCES
